StartDate,EndDate,Status,Progress,Duration (in seconds),Finished,RecordedDate,ResponseId,DistributionChannel,UserLanguage,Q1,Q2,Q3,Q4,Q6,Q7b,Q6a,Q7,Q7a,Q7a_11_TEXT,Q31,Q8,Q21,Q9,Q10_1,Q10_2,Q10_3,Q10_4,Q10_15,Q10_16,Q10_16_TEXT,Q11
Start Date,End Date,Response Type,Progress,Duration (in seconds),Finished,Recorded Date,Response ID,Distribution Channel,User Language,Please specify your age range:,What is the highest education level you have completed?,What is the zip code where you live? (e.g. 95616),"Do you have any health conditions, like asthma, that might make you more susceptible to the effects of poor air quality?","During the past 12 months, were you informed, or did you think, that the air quality near you was bad?",How did you know that the air quality was bad?,"At any point in the past 12 months, was the poor air quality due to a wildfire?","During the past 12 months, when you thought or were told air quality was bad, did you do anything differently (like avoiding time outside)?",Which of the following changes did you make due to poor air quality? - Selected Choice,Which of the following changes did you make due to poor air quality? - Other - Text,How did you decide which changes to make due to poor air quality?,"In the past 12 months, have you used any websites (like airnow.gov) to check your local air quality?",Which site(s) did you use to monitor air quality?,"In the past 12 months, do you feel that you had accurate, complete information about the air quality near you?","Here, we list several features that could be added to an air quality map like the one above. For each feature, rate how helpful it would be to include in an air quality monitoring tool. - See how bad the air quality might be in my location","Here, we list several features that could be added to an air quality map like the one above. For each feature, rate how helpful it would be to include in an air quality monitoring tool. - Understand the uncertainty of the estimated air quality","Here, we list several features that could be added to an air quality map like the one above. For each feature, rate how helpful it would be to include in an air quality monitoring tool. - Know the health risk corresponding to the current air quality","Here, we list several features that could be added to an air quality map like the one above. For each feature, rate how helpful it would be to include in an air quality monitoring tool. - Know whether it's worth skipping outdoor activites","Here, we list several features that could be added to an air quality map like the one above. For each feature, rate how helpful it would be to include in an air quality monitoring tool. - Understand how we know the air quality in a location","Here, we list several features that could be added to an air quality map like the one above. For each feature, rate how helpful it would be to include in an air quality monitoring tool. - Other","Here, we list several features that could be added to an air quality map like the one above. For each feature, rate how helpful it would be to include in an air quality monitoring tool. - Other - Text","Do you have any other comments on your experience with air quality monitoring tools, or with air pollution in your life?"
"{""ImportId"":""startDate"",""timeZone"":""America/Los_Angeles""}","{""ImportId"":""endDate"",""timeZone"":""America/Los_Angeles""}","{""ImportId"":""status""}","{""ImportId"":""progress""}","{""ImportId"":""duration""}","{""ImportId"":""finished""}","{""ImportId"":""recordedDate"",""timeZone"":""America/Los_Angeles""}","{""ImportId"":""_recordId""}","{""ImportId"":""distributionChannel""}","{""ImportId"":""userLanguage""}","{""ImportId"":""QID172807697""}","{""ImportId"":""QID93""}","{""ImportId"":""QID96_TEXT""}","{""ImportId"":""QID172807686""}","{""ImportId"":""QID172807685""}","{""ImportId"":""QID100_TEXT""}","{""ImportId"":""QID97""}","{""ImportId"":""QID98""}","{""ImportId"":""QID99""}","{""ImportId"":""QID99_11_TEXT""}","{""ImportId"":""QID103_TEXT""}","{""ImportId"":""QID101""}","{""ImportId"":""QID104_TEXT""}","{""ImportId"":""QID102""}","{""ImportId"":""QID172807696_1""}","{""ImportId"":""QID172807696_2""}","{""ImportId"":""QID172807696_3""}","{""ImportId"":""QID172807696_4""}","{""ImportId"":""QID172807696_15""}","{""ImportId"":""QID172807696_16""}","{""ImportId"":""QID172807696_16_TEXT""}","{""ImportId"":""QID172807700_TEXT""}"
2019-06-24 17:10:09,2019-06-24 17:10:58,Survey Preview,100,49,True,2019-06-24 17:10:59,R_12A3uRLpLCDaO9t,preview,EN,25-34,Master's degree,94703,No,Yes,,Yes,Yes,,,,,,,,,,,,,,
2019-06-24 17:45:50,2019-06-24 17:46:18,Survey Preview,100,28,True,2019-06-24 17:46:18,R_3oMh9tBKWRAFtLS,preview,EN,18-24,Some college,12345,Yes,No,,,,,,,,,,,,,,,,,
2019-07-08 15:50:41,2019-07-08 15:52:29,IP Address,100,108,True,2019-07-08 15:52:30,R_9n88H370iXr6iLn,anonymous,EN,18-24,Some college,35406,No,No,,,,,,,No,,Neither agree nor disagree,5,3,2,3,1,5,,"I live in the middle of the woods in Alabama, the air couldn’t get better"
2019-07-08 16:09:20,2019-07-08 16:10:41,IP Address,100,80,True,2019-07-08 16:10:41,R_UKhxXBNELggiaVX,anonymous,EN,18-24,Some college,,No,No,,,,,,,No,,Neither agree nor disagree,5,1,4,,1,,,
2019-07-08 16:15:54,2019-07-08 16:18:52,IP Address,100,178,True,2019-07-08 16:18:53,R_2QRkAwJoJvjP1Pr,anonymous,EN,35-44,Doctorate,95616,No,Yes,Spare the Air website,Yes,Yes,"Wore a mask,Avoided time outside,Closed windows to your home,Canceled/skipped activites,Spent time in a different location with better air",,Common sense,"Yes,  other websites",Spare the Air,Agree,2,5,3,1,1,,,
2019-07-08 18:29:34,2019-07-08 18:34:42,IP Address,100,308,True,2019-07-08 18:34:42,R_31MJg8SpGVI73BU,anonymous,EN,18-24,Bachelor's degree,95616,Yes,Yes,"Saw bad air quality alert on weather app. ",No,Yes,"Wore a mask,Used an air filter,Avoided time outside,Did less strenuous exercise,Took medication,Closed windows to your home,Canceled/skipped activites",,"Based on my lungs ",No,,Disagree,5,3,5,5,,,,Definitely need to use one in my life!!
2019-07-08 19:08:41,2019-07-08 19:13:23,IP Address,100,282,True,2019-07-08 19:13:23,R_xDD89URX7ON9nSF,anonymous,EN,18-24,Some college,94803,No,Yes,"With the fires in fall quarter, we looked online at a website for air quality scores (don't remember the website name).",Yes,Yes,"Wore a mask,Avoided time outside,Did less strenuous exercise,Closed windows to your home,Canceled/skipped activites,Spent time in a different location with better air,Other",Biked/walked less,,"Yes, Airnow",,Somewhat agree,5,5,5,3,4,,,
2019-07-08 19:24:32,2019-07-08 19:26:47,IP Address,100,135,True,2019-07-08 19:26:48,R_3NTY9FNx04ij4d5,anonymous,EN,18-24,Some college,95616,No,Yes,news,Yes,Yes,"Wore a mask,Avoided time outside,Did less strenuous exercise,Closed windows to your home,Canceled/skipped activites",,news,"Yes,  other websites",aqi,Somewhat agree,4,1,5,5,3,,,
2019-07-08 22:11:51,2019-07-08 22:16:38,IP Address,100,287,True,2019-07-08 22:16:38,R_1l9smAl9P8pSnvE,anonymous,EN,18-24,Some college,95618,No,Yes,"From going outside and from looking up the aqi online. ",Yes,Yes,"Wore a mask,Avoided time outside,Avoided roads with heavy traffic,Did less strenuous exercise,Closed windows to your home,Drove your car less,Canceled/skipped activites",,Common sense. Avoid the pollutants by either staying inside or using a mask outside,"Yes, Airnow",,Strongly agree,5,4,5,5,3,,,
2019-07-08 23:16:49,2019-07-08 23:20:48,IP Address,100,238,True,2019-07-08 23:20:48,R_3qfW5ofw4xwAx2R,anonymous,EN,25-34,Master's degree,95616,No,Yes,I couldn't see the sun,Yes,Yes,"Wore a mask,Used an air filter,Avoided time outside,Did less strenuous exercise,Closed windows to your home",,Common sense,"Yes, Airnow,Yes,  other websites",Various weather websites,Somewhat agree,5,5,3,4,5,,,Pm 2.5 sensors are straight garbage and I feel for all the researchers who rely on them
2019-07-09 00:11:45,2019-07-09 00:14:49,IP Address,100,183,True,2019-07-09 00:14:50,R_2cviVccitoMv3wi,anonymous,EN,18-24,Associate degree,94530,No,No,,,,,,,"Yes,  other websites","Don’t remember ",Somewhat agree,4,5,2,3,5,,,
2019-07-09 13:39:54,2019-07-09 13:41:40,IP Address,100,106,True,2019-07-09 13:41:41,R_AHD5EjLTeciILXr,anonymous,EN,25-34,Bachelor's degree,95817,Not sure,Yes,checked airnow.gov,Yes,Yes,"Used an air filter,Avoided time outside,Did less strenuous exercise,Closed windows to your home",,,"Yes, Airnow",,Agree,4,5,5,5,5,,,
2019-07-10 11:40:54,2019-07-10 11:46:35,IP Address,100,340,True,2019-07-10 11:46:35,R_2rOd6kyowyotDSC,anonymous,EN,25-34,Master's degree,19143,Yes,Yes,The news weather meteorologist said air quality index was high as were pollen counts,No,Yes,"Wore a mask,Used an air filter,Avoided time outside,Did less strenuous exercise,Took medication,Closed windows to your home,Drove your car less,Canceled/skipped activites",,Based on how poor the air quality was,"Yes,  other websites",NOAA,Somewhat agree,5,5,5,5,5,,,"I like it when meteorologists on TV explain the measurements to lay audiences. Moving from a region with good air quality to poor air quality has impacted my quality of living with me venturing outside less, thus getting less physical activity, and using more medication."
2019-07-08 16:40:52,2019-07-08 16:42:46,IP Address,82,113,False,2019-07-15 16:43:18,R_2tsxFmxMDajpmGd,anonymous,EN,25-34,Bachelor's degree,,No,Yes,Hazy air,Yes,Yes,"Wore a mask,Avoided time outside,Avoided roads with heavy traffic,Did less strenuous exercise,Closed windows to your home,Drove your car less,Canceled/skipped activites,Spent time in a different location with better air",,"All I could do, as needed","Yes, Airnow",,Somewhat agree,,,,,,,,
2019-07-15 19:52:48,2019-07-15 20:21:34,IP Address,100,1726,True,2019-07-15 20:21:34,R_31YKV5RlK8oJoMD,anonymous,EN,25-34,Bachelor's degree,20011,Not sure,Yes,,No,No,,,,No,,Disagree,5,5,2,5,1,3,,"The rating given Is how I understand the health effects. Or, more frequently, just by the color. I almost certainly wouldn’t read additional info unless I was responsible for some people with asthma or other respiratory shit. "
2019-07-09 08:44:09,2019-07-09 08:44:32,IP Address,35,23,False,2019-07-16 08:44:45,R_0BeNfkRMj4yiLjX,anonymous,EN,18-24,Some college,95616,No,Yes,,,,,,,,,,,,,,,,,
2019-07-09 14:58:43,2019-07-09 15:03:29,IP Address,6,285,False,2019-07-16 15:03:46,R_r6Hkhz4dPdpmRFv,anonymous,ZH-T,,,,,,,,,,,,,,,,,,,,,,
2019-07-17 11:47:32,2019-07-17 11:50:08,IP Address,100,155,True,2019-07-17 11:50:08,R_3I5XF3eAAzBtSSl,anonymous,EN,18-24,High school or equivalent,95148,No,Yes,It was orange outside.,Yes,Yes,"Wore a mask,Avoided time outside,Did less strenuous exercise,Closed windows to your home,Canceled/skipped activites",,,"Yes, Airnow,Yes,  other websites",www.wunderground.com,Agree,5,2,5,4,2,,,
2019-07-17 14:56:31,2019-07-17 15:00:48,IP Address,100,257,True,2019-07-17 15:00:48,R_1ie7AqdwE4i53pc,anonymous,EN,25-34,Bachelor's degree,94043,No,Yes,"By observation, but also by checking local air quality board's website and monitoring AQI's",Yes,Yes,"Wore a mask,Did less strenuous exercise,Closed windows to your home,Drove your car less,Canceled/skipped activites,Spent time in a different location with better air",,"Recommendations from local government agencies and ""common sense"".","Yes, Airnow,Yes,  other websites","airnow.gov, baaqmd.gov, google",Agree,5,2,5,4,3,,,"I've found them to be pretty useful, generally. "
2019-07-17 13:27:47,2019-07-17 15:00:53,IP Address,100,5586,True,2019-07-17 15:00:54,R_1In1BUlavOJnIhU,anonymous,EN,35-44,Bachelor's degree,95618,No,Yes,"AQI rating, visibility, smell of smoke.",Yes,Yes,"Wore a mask,Avoided time outside,Did less strenuous exercise,Closed windows to your home,Canceled/skipped activites",,"Based on exposure time and physical exertion. ","Yes,  other websites",,Strongly agree,4,4,3,3,3,,,
2019-07-17 15:23:59,2019-07-17 15:26:37,IP Address,100,158,True,2019-07-17 15:26:38,R_33sfA8YMeZ97J50,anonymous,EN,25-34,Bachelor's degree,95618,No,Yes,"You could see how smokey it was, you could smell it, everyone was talking about it, and campus closed.",Yes,Yes,"Wore a mask,Avoided time outside,Did less strenuous exercise,Closed windows to your home,Canceled/skipped activites",,Followed other recommendations,"Yes, Airnow,Yes,  other websites",https://www2.purpleair.com/,Agree,4,3,3,3,3,,,
2019-07-18 05:21:13,2019-07-18 05:25:42,IP Address,100,268,True,2019-07-18 05:25:43,R_2ci7newJPzsVxMm,anonymous,EN,18-24,No high school diploma,95632,No,Yes,Was informed by the news and school district because of surrounding fires. Many events were canceled. Due to poor air quality,Yes,Yes,"Avoided time outside,Canceled/skipped activites",,Was advised to do those things,"Yes, Airnow,Yes,  other websites",,Strongly agree,5,5,5,5,2,,,
2019-07-19 22:24:38,2019-07-19 22:26:56,IP Address,100,138,True,2019-07-19 22:26:56,R_2ScpmQfvjU5uybv,anonymous,EN,18-24,High school or equivalent,91722,Yes,Yes,Google gave me notifications when air quality would rise above a level that would affect people who are susceptible to air pollution.,Yes,Yes,"Avoided time outside,Closed windows to your home,Spent time in a different location with better air",,Read online what I should do,"Yes, Airnow,Yes,  other websites",,Agree,5,5,5,5,5,,,
2019-07-20 09:06:28,2019-07-20 09:09:29,IP Address,100,180,True,2019-07-20 09:09:29,R_W33WErbYnVz5YjL,anonymous,EN,35-44,Bachelor's degree,95688,No,Yes,"By breathing, mostly.",Yes,Yes,"Wore a mask,Used an air filter,Avoided time outside,Closed windows to your home,Drove your car less",,"Common sense, mostly","Yes,  other websites","weather.gov, wunderground",Somewhat disagree,5,5,5,5,5,,,It's getting mighty crowded on this planet and in California. The air is getting a lot worse. I hope we can work towards some solutions or we're all not going to be able to breathe.
2019-07-20 20:53:17,2019-07-20 20:57:39,IP Address,100,261,True,2019-07-20 20:57:39,R_10qnqqP2xejT0ow,anonymous,EN,35-44,Doctorate,95616,Yes,Yes,"Weather app, morning news, Purpleair.com",Yes,Yes,"Avoided time outside,Did less strenuous exercise,Took medication,Closed windows to your home,Canceled/skipped activites,Spent time in a different location with better air",,"Depended on the particular pollutant, and time of day.","Yes, Airnow,Yes,  other websites",https://airnow.gov/,Somewhat agree,5,5,5,5,4,,,"Purpleair network is great, but inconsistent. Needs bad values removed, and sensors made more affordable or deployed more regularly by agencies."
2019-07-13 21:23:33,2019-07-13 21:24:06,IP Address,6,32,False,2019-07-20 21:24:38,R_1CqodPLSZ04iLoC,anonymous,EN,,,,,,,,,,,,,,,,,,,,,,
2019-07-14 19:20:36,2019-07-14 19:20:50,IP Address,6,14,False,2019-07-21 20:04:48,R_3ssH9m84amwgiHY,anonymous,EN,,,,,,,,,,,,,,,,,,,,,,
2019-07-17 09:49:49,2019-07-17 09:50:01,IP Address,6,12,False,2019-07-24 09:50:29,R_2YtugbFoYd8VvUn,anonymous,EN,,,,,,,,,,,,,,,,,,,,,,
2019-07-24 14:43:03,2019-07-24 14:44:13,IP Address,100,69,True,2019-07-24 14:44:13,R_1MYzKdvcTli01ra,anonymous,EN,25-34,Master's degree,95129,No,No,,,,,,,No,,Somewhat agree,5,2,4,3,5,,,No
2019-07-24 17:16:35,2019-07-24 17:18:26,IP Address,100,110,True,2019-07-24 17:18:26,R_3MFlVxH9OBgcWZW,anonymous,EN,18-24,High school or equivalent,95616,No,No,,,,,,,No,,Neither agree nor disagree,5,2,5,4,1,,,
2019-07-25 18:28:21,2019-07-25 19:02:21,IP Address,100,2039,True,2019-07-25 19:02:21,R_Z8Yz1eOLOcSxlpD,anonymous,EN,18-24,Some college,95616,No,Yes,"Smoke in the air due to fires in Paradise, school was canceled.",Yes,Yes,"Wore a mask,Avoided time outside,Closed windows to your home,Canceled/skipped activites,Spent time in a different location with better air",,Advice from others and common sense,"Yes, Airnow",,Agree,4,4,4,4,4,4,,
2019-07-25 19:36:55,2019-07-25 19:39:54,IP Address,100,178,True,2019-07-25 19:39:54,R_Unzj7modBffDApH,anonymous,EN,18-24,Some college,95616,No,Yes,"Could see the smoke in the air from fires, emails sent out by Campus, and warnings by the city",Yes,Yes,"Wore a mask,Avoided time outside,Closed windows to your home,Canceled/skipped activites,Spent time in a different location with better air",,"Classes were cancelled by UC Davis, my roommates and I decided to spend time away from the area for clean air for a weekend.","Yes, Airnow",,Agree,5,3,5,5,3,,,NA
2019-07-28 10:29:28,2019-07-28 10:32:00,IP Address,82,151,False,2019-08-04 10:32:50,R_2wyvFjoiZxTdjLi,anonymous,EN,18-24,Some college,95758,No,Yes,It was cloudy and grey everywhere.,Yes,Yes,"Wore a mask,Avoided time outside,Did less strenuous exercise,Closed windows to your home,Canceled/skipped activites,Spent time in a different location with better air",,Announcements and suggestions made by UC Davis or the government.,"Yes, Airnow,Yes,  other websites",Ainow,Agree,,,,,,,,
2019-08-12 15:23:03,2019-08-12 15:25:50,IP Address,100,166,True,2019-08-12 15:25:51,R_1rrhdIgBVJNI5Cr,anonymous,EN,25-34,Doctorate,95814,No,Yes,"Visibly bad. And I used AirNow. ",Yes,Yes,"Wore a mask,Used an air filter,Avoided time outside,Did less strenuous exercise,Took medication,Closed windows to your home,Drove your car less,Canceled/skipped activites,Spent time in a different location with better air",,Research and doctor recommendations,"Yes, Airnow",,Somewhat agree,5,5,5,5,5,,,
2019-08-12 15:25:24,2019-08-12 15:27:32,IP Address,100,127,True,2019-08-12 15:27:32,R_3rNwB5RPKGtLrLr,anonymous,EN,25-34,Master's degree,95817,No,No,,,,,,,"Yes,  other websites","Weather.com ",Somewhat agree,5,5,5,5,5,,,
2019-08-12 15:45:28,2019-08-12 15:52:26,IP Address,100,417,True,2019-08-12 15:52:26,R_1CDYQgriCjirN32,anonymous,EN,35-44,Doctorate,95616,Yes,Yes,"There was a lot of smoke, but also the news on TV and online had reports about it.  Also, this morning, the TV news mentioned bad air quality - just typical summer bad air.",Yes,Yes,"Avoided time outside,Did less strenuous exercise,Took medication,Closed windows to your home,Drove your car less,Canceled/skipped activites,Spent time in a different location with better air,Other",took the bus instead of riding my bike to work,"logic - if the air is unhealthy to breathe outside, stay indoors and avoid being outside if you can.","Yes, Airnow,Yes,  other websites",https://www.ysaqmd.org/,Somewhat agree,5,5,5,5,5,5,zoom to my location,"I think sometimes it's hard to understand why the air quality can be ""unhealthy"" in one city but completely safe in the next city over (for example, Sacramento compared with Davis)."
2019-08-12 16:13:10,2019-08-12 16:16:13,IP Address,100,183,True,2019-08-12 16:16:13,R_27pMn5KOia46LSH,anonymous,EN,18-24,Master's degree,95616,Yes,Yes,"Forest fires, red haze, acidic smell",Yes,Yes,"Avoided time outside,Closed windows to your home,Spent time in a different location with better air",,"School guidelines ","Yes,  other websites",Apps on phone,Neither agree nor disagree,5,2,5,4,3,,,
2019-08-12 17:35:29,2019-08-12 17:39:33,IP Address,100,244,True,2019-08-12 17:39:33,R_2QS2oZhoMbPL14x,anonymous,EN,35-44,Doctorate,94965,Yes,Yes,Smoke in the air,Yes,Yes,"Wore a mask,Used an air filter,Avoided time outside,Closed windows to your home",,Advice and personal judgment,"Yes, Airnow,Yes,  other websites",I don't remember but I wished for finer grained historical data available to the public than I was able to find.,Strongly disagree,5,3,5,5,5,5,Historical averages for my location,
2019-08-12 17:57:40,2019-08-12 18:03:09,IP Address,100,329,True,2019-08-12 18:03:10,R_3g0FGGs2l7JnhF4,anonymous,EN,25-34,Doctorate,95695,Yes,Yes,"Part of it was visual caused by the intense wildfire smoke we've had. Part of it was from Sacramento Region Air Quality app that I use to check the PPM and ozone levels in my area. ",Yes,Yes,"Avoided time outside,Did less strenuous exercise,Closed windows to your home,Drove your car less,Canceled/skipped activites,Spent time in a different location with better air",,Based on information from my city and other air quality information from news sources.,"Yes,  other websites",http://www.sparetheair.com/,Somewhat agree,5,4,5,5,5,,,
2019-08-12 18:28:38,2019-08-12 18:34:21,IP Address,100,343,True,2019-08-12 18:34:21,R_37pcJaMHeDRFzjj,anonymous,EN,18-24,Bachelor's degree,95616,No,Yes,"News, government websites, warning emails from UC Davis, I could't friggin breath or see either.",Yes,Yes,"Wore a mask,Avoided time outside,Closed windows to your home,Canceled/skipped activites,Spent time in a different location with better air",,What I had time/resources for.,"Yes,  other websites",don't remember,Agree,5,2,4,4,1,,,no
2019-08-12 19:01:35,2019-08-12 19:03:40,IP Address,100,125,True,2019-08-12 19:03:41,R_295JHt4KGOH87DT,anonymous,EN,18-24,Bachelor's degree,94553,Yes,No,,,,,,,No,,Somewhat agree,5,4,5,5,3,,,
2019-08-13 08:36:15,2019-08-13 08:38:07,IP Address,100,112,True,2019-08-13 08:38:08,R_31o24wiGXMXuT6g,anonymous,EN,,,,,,,,,,,,,,,,,,,,,,
2019-08-13 12:55:49,2019-08-13 12:57:24,IP Address,100,95,True,2019-08-13 12:57:25,R_3kcBnNLQiyQW4UB,anonymous,EN,18-24,Some college,95616,Yes,Yes,"AQ reader+increased asthma symptoms ",Yes,Yes,"Wore a mask,Used an air filter,Avoided time outside,Did less strenuous exercise,Took medication,Closed windows to your home,Canceled/skipped activites",,Needed to,"Yes, Airnow",,Somewhat agree,5,4,5,5,3,,,
2019-08-13 14:06:44,2019-08-13 14:08:22,IP Address,100,97,True,2019-08-13 14:08:22,R_24dDdlOSRabU2Na,anonymous,EN,18-24,Bachelor's degree,95616,No,Yes,"School was cancelled because of the air quality. 
Also you could see smoke in the air",Yes,No,,,,No,,Disagree,5,2,5,5,4,,,
2019-08-06 15:37:42,2019-08-06 15:41:44,IP Address,24,241,False,2019-08-13 15:41:49,R_pLtj0WGDrxBy1RD,anonymous,EN,,,,,,,,,,,,,,,,,,,,,,
2019-08-14 14:20:15,2019-08-14 14:23:49,IP Address,100,213,True,2019-08-14 14:23:49,R_3D1mAuHyMa7bTG0,anonymous,EN,35-44,Doctorate,95618,No,Yes,"Smoke in the air, media reports",Yes,Yes,"Avoided time outside,Did less strenuous exercise,Closed windows to your home,Canceled/skipped activites",,,"Yes,  other websites",sparetheair,,5,3,4,4,2,,,
2019-08-12 15:33:44,2019-08-12 15:40:40,IP Address,82,415,False,2019-08-19 15:40:48,R_2CI1cKD4r2vlsSN,anonymous,EN,45-60,Doctorate,95616,No,Yes,"Neighbor said it was bad, and you could smell the smoke.",Yes,No,,,,"Yes, Airnow",,Neither agree nor disagree,,,,,,,,
2019-08-12 15:48:17,2019-08-12 15:48:24,IP Address,6,6,False,2019-08-19 15:48:33,R_SCAo7bgmhFs8J4l,anonymous,EN,,,,,,,,,,,,,,,,,,,,,,
2019-08-12 19:13:03,2019-08-12 19:14:12,IP Address,53,68,False,2019-08-19 19:14:37,R_1JFTuOWbP0arlq6,anonymous,EN,25-34,Master's degree,94132,Yes,Yes,You could see the air. Alerts from news and school and apps,Yes,Yes,,,,,,,,,,,,,,
2019-08-12 19:25:19,2019-08-12 19:25:35,IP Address,6,16,False,2019-08-19 19:26:25,R_1kN34SxjI70LqtN,anonymous,EN,,,,,,,,,,,,,,,,,,,,,,
2019-08-21 10:59:12,2019-08-21 11:01:32,IP Address,100,139,True,2019-08-21 11:01:33,R_2OTJip1dw8xkH76,anonymous,EN,18-24,Bachelor's degree,95616,No,Yes,Fires,Yes,Yes,"Wore a mask,Used an air filter,Avoided time outside,Avoided roads with heavy traffic,Did less strenuous exercise,Closed windows to your home,Drove your car less,Spent time in a different location with better air",,"Stay indoor as possible ","Yes, Airnow",,Strongly agree,3,3,5,3,3,0,,
2019-08-22 21:21:11,2019-08-22 21:23:14,IP Address,100,123,True,2019-08-22 21:23:14,R_dp918UT6ZAiHDKp,anonymous,EN,25-34,Bachelor's degree,95616,No,No,,,,,,,No,,Disagree,5,5,5,5,5,5,,
