,user_15,user_16,user_13,user_14,user_11,user_12,user_10,user_9,user_5,user_2,user_1,user_8,user_7,user_3,user_4,user_6
baseline,,"i don't consider myself to be an unhealthy group, but it's all on a spectrum. this is like when we had that giant cloud of smoke come and settle over the bay area, so i wouldn't go outside at all for that.",,,"since i experienced this, and i biked home on a day that was like this, and it was really bad, i know that i really wouldn't want to do it. if i hadn't had that experience, though, i might have chosen somewhat agree. (u.s.g.): for me personally, i don't have any of those issues. if it started to feel bad, maybe. ","i kinda would agree, because i do have a history with asthma, but im' not super sensitive.","i don't consider myself a sensiitive group, so i wouldn't change my plan. unhealthy, anything indicating unhealthy i'll probably try to avoid, so i'll reduce my outside exercise. if it's very unhealthy, i would strongly agree with this one. for this one, because it's more, it says very unhealthy, i kind of trust the scale here.",,"for this a.q.i. (ver unhealty) i will reduce my outside exercise bc the health told me that active children and adults should avoid, besides people with respiratory disease, so i think i wouldn't do any outside exercise. I believe this health message comes from an authority, so i am extremely confident.  (unhealthy:) okay, so this is a health message that is less risky for outdoor exercise, so i would choose to do moderate exercise outdoors, like coming to the school nad some kind of outdoor transportation, so, but i wouldn't do any, like, very active exercise. so i would choose agree. (u.s.g.:) so, for this time, the air quality index says it's unhealthy for sensitive groups, and i believe my body is, like, healthier than, above the average. so i would try to reduce my outdoor exercise, but if i need to do outdoor exercise, i will do what i was planning to do as usual.",,,,"i think i'm a more sensitive group, so i tend to...",,"well yeah, i have allergies, i don't have a choice -- i'll somewhat agree bc i like to deny my allergies. going off the fire season, using these charts for that seemed pretty accurate to me at least for my own allergies. yeah, strongly agree, i don't feel like using an inhaler.",
baseline_tags,,,,,,,,,,,,,,,,
b_b_text,,"um, tat's a whole lot of orange and this little tiny bastion of yellow. i would honestly probably change my plans, i'd be somewhat skeptical of the meausrement i'm seeing, i see that it's a single little point and i'm over here towards the end. well, i guess i would go here, to the good. this is all best things considered. it may be crowded there, far away. ","looks like i would spend most of my time in a merely u.s.g area, and just a little bit in the unhealthy for all. i'm doing this as me, and i'm not in a sensitive group? okay. i'd go there because it's the blue dot.",,"i'd be like, uh oh, it's encroaching. i'd reduce my outside activity - somewhat agree. (loc): so if i'm assuming i'm here in this u.s.g., and i'm like this is not good, then clearly i don't - okay.","yeah - i mean, it depends, though, where you are. ","i think i will just try to avoid, yeah, i will reduce it, because i'm probably right by - to a longer distance the area close to where i am right now, so i think i will choose somewhat agree. ",,"i will probably choose to bike outside, and i won't, like, run outside, because the air quality is still unheatlhy, and instead of breathing the air outside i would rather choose to go to the gym and stay indoors. but for biking, i think it's not that harsh. so i'll choose somewhat agree. (loc): then i'll, for example, if i want to run outdoors, i would choose to run around this area so i'll click here. it's the nearest area where the air quality is moderate. i'm confident with this choice (phys), but i'm not very confident with choosing this area, becuase i'm not sure if there could possibly be a wind and the area would somehow shrink, and the unhealthy air will come to this area, will shrink, whereas this area will be enlarged.","i am without any illness, if i'm without a schedule i should keep it.","for this, it depends on which exact point i will live in this area, but as most of the circle looks good for me, i might not reduce my outside exercise. but at least there is a small part that is unhealthy, so i would somewhat disagree. it depends on my own health condition, I guess. (loc) of course i would go here.",,,,,
b_b_tags,,"amounts of color (qualitative), express skepticism","identify health levels, amount of time",,time varying aqi,,distance,,"time varying aqi, identify health levels, distance",personal factors,amounts of color (qualitative),,,,,
c_b_text,,"are these all real data? cool. i guess i'd go over here, it's in the middle of the biggest patch.","jesus, is this from when the tire fire happened? i would strongly agree.","this looks like a bigger area of that, so i'll try to get there.","oh, yeah. definitely. ","last time when it was very unhealthy, it wasn't that great. actually - i would, but strongly agree, though? i'm trying to think about when there was a fire and there was very unhealthy air, so - yeah, i think i would - no, i have to go to work, i don't know, if i would skip work, or...","yeah, i'll definitely change it. it's very unhealthy. so the location i'm in is very unhealthy so i don't want to go out at all. actually, i don't want to go. this is okay, right? stay inside. ",,"for this scenario, i wouldn't go outside today, because it says very unhealthy, and my activity area is right in the middle of the very unhealthy. and it's very close to the hazardous. so i will definitely change my plans today. so i will choose strongly agree. (loc): it's hard to choose an area from this map, bc if you go to here, you only go from very unhealthy to unhealthy, and i think if you stay at home, the air quality won't affect that much, so maybe i'll stay at my place. for this part, i'll choose moderately confident, because maybe if i choose to go here, the air quality in this area will later become, like, get better first.","when it turns to very unhealthy, maybe i should change my plan. the best place is still unhealthy, so i have no choice.","and for this map, it looks extremely bad, just like the time last year when the fire, for several days. so i will not go outside. and for this map, actually there are two areas where i can go for relief, and i will choose the middle one because it is closer to my own location.",this place looks closer,(can i do multiples?),,"yeah, that looks terrible. (loc) i would want to say this one, if i was here, bc it seems like it's closer to get here from the roads, but over here i don't know what the rest of it is, cause this feels like it'll get closed in, surrounded. if i have a car i guess i'll just run over here. i'm slightly confident.",
c_b_tags,,size/area,,size/area,,"personal factors, identify health levels",identify health levels,,"distance, identify health levels, time varying aqi",,"distance, personal factors",distance,,,"time varying aqi, distance",
e_b_text,,"i'd probably try and go this way a little more. i'm fairly far away, this is a contained source over here, it's pretty good over here, and i'm not a sensitive group.","this is just unhealthy for sensitive groups. um, i feel like the circle is throwing me off. let's see, moderate. ",,"yes, maybe. i don't want to do that. well, it's right there.","this is unhealthy for sensitive people, and i'm not super sensitive, so i'll still go out. that's fine. ","uh, maybe not. yeah, so where i am is just unhealthy for sensitive groups, and most areas is just unhealthy for sensitive groups, so yeah i'd still do some outside activities. i'd probably just try to stay in this area for a while before coming back. i think it's safer to trust it if it's very unhealthy - try to avoid a place that's very unhealthy. but for a healthy place i'd probably not that much care about that.",,"i think for this scenario, if i were to bike in this area today, i'd still follow my plans, but if i were to run, i would choose to go outside this area and go to better AQ to exercise. and, yeah, i would go to outside this area, slightly outside here, if i were to - planning exercise. and for this time, i'll still choose moderately confident because i'm not sure whether this area will touch here later on.","so i'm not a sensitive group, so i don't think i need to change my plans. if we can reach a better place, then yeah i should go.","for this map, it looks good for me, so it's highly possible that i would not reduce my outside exercise. but maybe not as sure as before. and for this map, I would go to this area.",,"well, it's not too bad, but...",,"nah, that looks like a pretty good day. idk, i'm feeling overall it's kind of fine, so i guess if i'm like, i don't know. yeah, i don't think i would be dying or feeling uncomfortable enough to want to go somewhere else, if it's somewhere between moderate and unhealthy.",
e_b_tags,,size/area,,,,identify health levels,"identify health levels, amount of time, comparison to whole map",,time varying aqi,,,,,,"identify health levels, qualitative",
f_b_text,,"i probably would change my plans on this one, bc i'm realizing that i'm very, i don't know what the word is, sort of claustrophobic, but when you'er looking at data on the map, i don't like this orange all around me, i feel like the data may be old, the clean air may be shrinking. even though it's u.s.g, i'd take that into consideration. i'd go there, right to the center.",,,,"[asks about current air quality] somewhat disagree, because i think it's kind of bad, i probably would go out, it's not super bad. ","most areas are just unhealthy for sensitive groups, so i disagree. and definitely toward the better area.",,"still, the air quality is unhealthy for sensitive groups, so this question, um, i would make the same choice as the previous one, i'll choose agree. and if i were to stay - if i were to run, i would run in this area for a little while, because i thikn the area is surrounded by these unhealthy air quality, so this area might get infected - so i'll still choose moderately confident.",and this is the closest place that looks good.,"for this one actually i'm still in the area where it is similar to the previous one, but for this map I can see that there are more unhealthy areas that are close to my location, so i might guess that there is a possibility that the area where i am located will become worse. so i might reduce my outside exercise. and i will go to the location with moderate air quality that is the closest to me.",,"i didn't notice for the last one, the circumstances around, i just noticed the area nearby.","from the visual aspects, sometimes i confuse the moderate color with the USG","uh, i dno't know. i don't know how it's gonna change for how long i'd be outside. for me, i probably wouldn't change anything, roll with it and see what happens. this is the same issue i had during the fire bc it would look like it could hit you or it couldn't hit you. so for me it felt like a 50-50 because this could change with the wind.","the contour seems to specify the area, so, yeah."
f_b_tags,,"express skepticism, identify health levels, time varying aqi, shape",,,,"qualitative, personal factors",identify health levels,,"identify health levels, amount of time, time varying aqi, shape",distance,"distance, identify health levels, time varying aqi",,,difficulty,"time varying aqi, personal factors",shape
g_b_text,,"um, i probably would reduce - these two things are fairly close, and i don't much care for that. so i'm gonna say that i somewhat agree, still better AQ over here but still areas that are unhealthy near me. i don't know what's on the other side of this border, but i'll assume it's more of the same.",,,"it could go that way, or that way. maybe some people think if it's flanking, it's gonna come. that's what my brain is thinking. this is an interesting question because it looks impending. it looks like it could be getting worse. just because of the formation, it does kind of influence. and this is unhealthy, not very unhealthy. i think, it's kinda silly, but yeah, because it could be, just the fact that it's close by.","so this is unhealthy for sensitive groups. but then this red part moves, no? if you're here during the day, it moves, right? so if you know it's really close to a bad area - depends.","for this case, i guess there are more areas closer to my plae that are unhealthy, so probably it would be good to reduce my plan. and i'd probably go toward the area that is not that bad, because south has a lot of areas that are unhealthy. ",,"this AQ level is still unhealthy for sensitive groups, so i'll still choose agree. and since all of the areas are the same color, or an even worse color, i'll choose to stay at my place to avoid the air pollution. i'll still choose moderately confident for this choice, bc if the air quality is unhealthy, i wouldn't, um, i wouldn't run or bike, so the unhealthy area is very close to my area, so if this turns to unhealthy i will choose strongly agree. ",it looks like the best place on the map. ,"and for this one, i am still located in the area that's unhealthy for sensitive groups air quality, and there are several areas with unhealthy air quality that is quite close to me, so i might slightly reduce my outside exercise. and since there is no area with better AQ than my current location, i might go to somewhere that will be further from the unhealthy area, so I will go somewhere like this.",I'm escaping the danger zone,,"if i click here, il'll be closer to this area",i think i'd go away from the two blobs. ,"oh, wow, this is difficult. so, where should i click, it looks all the same. ok, farther from - somewhere here."
g_b_tags,,"distance, identify health levels",,,"time varying aqi, shape, identify health levels","identify health levels, time varying aqi, distance","distance, comparison to whole map",,"identify health levels, comparison to whole map, distance, time varying aqi",,"distance, comparison to whole map",qualitative,,distance,distance,"difficulty, distance"
b_bp_text,"cause i think i've been through for the unhealthyl, so that won't be a problem for me. in this case, the most possible it can be is between u.s.g. and unhealthy, so that is a doable level. (loc): this is, of course, the only good condition, so that would be the best place for us to go. since that's the only point in the map, i don't think that this point is that reliable.","so, yeah, i'd absolutely change my plans on this. this model looks like shit. i'd strongly agree, i'd change that, this person's air quality management thing is not working and that has messed up the whole model, but there's virtually 100% agreement among the other poinst that it's unhealthy, so i'm definitely reducing my time outside. i don't think i'd go anywhere; i think i'd stay here. i'm not at all confident, i think that everything's equally bad in that scenario.",,"is this one indoors? gotta be honest, i'm more intimidated by this one. ","moderate's right here, i'm here, impending doom is everywhere. i don't know the scale of this, though, do i? i guess i'm assumign that this is big, but maybe this isn't that big. if this is el cerrito, then i'm scared. but if this is half of california, then i'm totally fine. i think it would almost be futile, but i guess i'll go there.","i thnk it's to do a lot with the map area, i thikn if you zoomed in you'd think that's fine, but now it changes. is this a real map? where is it? oh, that change sthings, because i know the surrounding area, it's coming. it's a little bit unhealthy, so --- ","uh, yeah, probably - i think this one is, like, yeah, somewhat confident.","when i was here and there's a kind of hazardous - i mean and unhealthy one and this is just u.s.g bc you see before that whern there's only u.s.g i choose neither agree or disagree, bc for me i'm not that sensitive - and actually if i really want to go outside that means it was v important to me i want to go outside, bc i'm not a person who always likes to hang out for activities - if i need to go somewhere, it should be impt to me so i don't care about AQ. so if it's just u.s.g . i don't think i would be affected by that, so i don't care about air quality with that. but here, maybe it's a little unhealthy, so maybe i would choose reduce a little bit.","so, this area contains both unhealthy, small bit of unhealthy, and large portion of u.s.g. and in this situation, i would rather stay at home and do none of the exercise outside today, so i would choose strongly agree. and i would choose to go here, because the air quality is between good and moderate, and i can definitely do some exercise here and it's close to the area i live. ","okay, so the govt sensor is the bigger one? says it's dangerous but there's a strange one says it's okay. and that may be the reason why it has some light colors, but most of them said it's dangerous, so maybe i should change my plan. yeah, i think the majority is correct. but if i have to change my plan i should take somewhere around this place, but i think it's not a correct result for me so i don't know if it—but if i have to make a choice, it's here.","i'm located in the area with most of the places unhealthy for sensitive group, but it looks like i am circled by a large area of places with unhealthy air quality, so i might reduce my outside exercise. and i will go to the place with the best air quality i can find.",,"(loc) hmm, this is interesting. it doesn't make much sense to me because these areas mean those are unhealthy, right? (clarification on sensor color)",,"ok, so this is using the sensors, larger are more accurate. why does this actually make me rethink life? hmm. dang, i actually may agree with this one now, it's not looking great. there's only one sensor in this area that's saying it's ok and everythign else is like yeah idk. and this is a smaller sensor than this one, so, yeah, maybe based off sensors, i'll change it to agree. i  now think the area that's good is a lie, so i don;t know where i'm gonna go. well, no, tha'ts not true, maybe - yeah this seems like an outlier so i wouldn't go there.",so are these sensors? ohh. 
b_bp_tags,"personal factors, identify health levels, express skepticism","qualitative, express skepticism",,qualitative,"qualitative, size/area","time varying aqi, qualitative",,"personal factors, identify health levels, qualitative","amounts of color (qualitative), identify health levels, distance","express skepticism, sensor/interp match, qualitative","comparison to whole map, identify health levels, shape",,identify health levels,,"sensor/interp match, express skepticism, qualitative",
c_c_text,"for this case, bc i'm 50% to have the hazardous weather outside, so that would be a huge problem for me. and for this map, the estimation is that it will be smaller in this aera than in this area. bc if the area has bigger - not as dangerous place to go, that would be more reliable to say that this place is larger than the other place.","i would absolutely change my plans, strongly agree. where would i go for relief? i notice there's no thing over here. does that mean there's no model to go with it? [assume that in worst case this is still orange] ok i'd go over here, then.",,"yeah, i don't think i - oh, i see. ","i'm here. would i change my plans, yes.","so i'm here, and this line is potentially gonna go out? even though yesterady i said very unhealthy and i'd still go to work - i mean, this looks bad. ","this one, yeah, definitely change my plan. ",,"so, with this information, and since the hazardous area is somehow going towards my area, i will definitely change my plan. i would rather stay home, because this small area is a little far, and this contour shows that the very unhealthy area is enlarging and shrinking the unhealthy level of air quality. so i wouldn't choose to go below a level where this is a possibility for this area to become very unhealthy. i will choose extremely confident.","so, it's not only a very unhealthy place but it's involved in the hazardous. (clicks on point in circle) but not so safe, maybe.","for this map, it looks like i am located in the area with really bad air quality, so i will definitely reduce my outside exercise. and i will go to the place with better air quality. i'm not sure whether i should go in the circle or outside the circle because i can't remember the trend means better or — (I clarify)— oh, I see. so that means I should go inside the circle. and since I was not sure about this, i guess, I choose somewhat confident.",,(asks for more clarification on the arrows),,"ok, so i'm here, hazardous is over there. yeah, no, i'm good. i think i'll do teh same thing i did before which is go over to this area purely because i feel like this is getting closed in on.","oh wow, ok, so this one doesn't have that uncertainty line"
c_c_tags,"probability, size/area",qualitative,,,,"potential, identify health levels",,,"time varying aqi, potential, size/area",identify health levels,qualitative,,,,"time varying aqi, shape",
e_sm_text,"in this map, only the worst estimation shows my location, but there's only one chance to be in that situation, so i don't think that will be very reliable. here, even in the worst situation i will be safe, and in some better situations it's doable for me, so i'll choose this area.","oh, i'm looking at, okay, the different models. i have no idea. neither agree or disagree, too much information, i'd probably go outside and smell the air and see how i felt. fascinating. so this guy here is definitely moderate, but everything around it is either horrible or pretty good.  i guess i'll go here - moderate is good enough, and i don't have to risk very unhealthy or hazardous. but how confident am i in my answer? not really.","is this throughout the course of a day, or...? [...] oh, got it. ","yeah, there's a few unhealthy options.","okay, this makes sense. ","i mean, i would wait, if i'm here. i'm gonna say neither agree nor disagree, because i don't know which one is the situation - if it was the present moment, i would know, right? [clarifies] i dno't know if i agree or disagree, i don't know which one is the truth, i would have to feel it. i feel moderately confident, because yeah. especially now i know this could be any of them.","i think for this one i tend to look for the average case - i assume when i look at this, that this is the most optimistic and this is the most pessimistic, i think i try to use the average one as the reference. so, given this case, i probably would not change my plan, so i would probably disagree that i would reduce my outside exercise. and the place i want to go is probably - i'll probably go somewhere here. so, this, there's less chance that i would - most likely it seems to me that most of the area is just u.s.g., so i'm moderately confident about my decisions.","if i were here, i definitely owuldn't reduce, and if i were here, i would definitely reduce - so what's the point of this question? [i re-explain] ","so, the highest possibility is the middle figure, and i see that in most of the figures, i mean, in the first six figures, the air quality are all this level or below the third level. so i'll still choose to, like, do some moderate exercise outside today. so i'll choose somewhat agree. (loc): so, for this question, i would choose the , if i really want to get rid of the air pollution, i would choose to trust the worst case figure. so i have the intention to choose here, because this is the only area that stays moderate or stays good in all of the figures. so if i want really good AQ, i will choose to go here. and i'm moderately confident with my choice bc i'm still not sure what would be the most likely situation for the air quality in my area. and i don't know why - because the first eight figures looks like -- this area becomes smaller and smaller, but to begin with, this aarea's quality is good, but it becomes very unhealthy in the end, so i'm not sure what's the trend of the area's change.","i guess this is an easy one, so, but, okay, so they are from different sensors, or? [different scenarios..] okay, so six of them said it's better than u.s.g., so i guess i'm still not so sure. i guess this is the best place from all nine figures -- this is here, yeah? ","so for this map i am located at someplace that might be extremely good or very unhealthy. so actually this is a little confusing for me. so i thikn i'd better reduce my outside exercise. and i might want to go to the area with better air quality even if in the worst condition, so i will go somewhere like this.",,,(asks for clarification on meaning of SM view),"ok, so this is like best case worse case expected case? so lets' see what my dice rolls are. in this case i'm screwed...not that bad...that's way too optimistic.  even in the worst case it just doesn't seem...yeah, i think i'd feel like it's still overall gonna be unhealthy but wouldn't really get to very unhealthy. i don't think i'm moving anywhere because it seems fine. a simple gust of wind and i'm like, whoops, i rolled wrong.","yeah, i'm clicking this one because it shows the good - oh, so even if it's bad, it should be somewhere here."
e_sm_tags,"probability, qualitative","personal factors, express skepticism, identify health levels",,"probability, identify health levels",,personal factors,"probability, identify health levels",,"probability, best/worst case scenario, shape","probability, identify health levels",qualitative,,,,"probability, best/worst case scenario, time varying aqi",qualitative
f_od_text,"it looks like half and half between unhealthy and very unhealthy in this area ,so i think i might reduce my outside activities if its' not that important. this is also the most blue part in the map.","this is sort of blendy - between unhealthy and very unhealthy and a little bit of moderate in there. yeah, i probably would. looks like a decent number of them, maybe 1/3, are saying moderate. not super positive about that, but 2/3 are saying less than that, so yeah. ",i do find this map more confusing than the other ones.,"is the darkest color represented here, i don't know if i can ask? is this very unhealthy? i'll say, though, squinting, looking at the darkest components of this, i think this looks like most of these in this grid are very unhealthy, and not hazardous, is what i'm basing this on.","let me think. if i had just seen this right off the bat, i'd be like, it doens't seem that serious, except for over there. it is a little more doomy than the other one, though, so maybe i'd want to look at other areas and see if they looked - like i'd want to look at tahoe, and see, if tahoe completely looks like this, i'd be scared, but if tahoe also had spots of red, then i'd be like, eh, i don't think it's gonna be that bad. i think i'd compare it to other places, but if i didn't have that luxury, i had no background knowledge, well then i don't think i'd care so much. i'd look up in the air, too.","because it's actually red - it's not red like this, but still kinda red - ","for this one, actually it's kind of - i'm mroe confused than the previous one, for this one. this is actually a lot of red dots up here. it feels like it's not safe to go outside. it's harder for me to make a decision on this one, but given a lot of red color, which is the magnitude of unhealthy/very unhealthy, so i probably would reduce my outside exercise. but mabye i'm not confident at all.",,"so, for this scenario, my area looks -- the overall of my area's color is, like, between unhealthy  for sensitive groups and unhealthy. but my area's still close to, like, good and moderate air quality. so i would choose somwhat agree to change my plans of exercise outdoors today. and i would go here for relief from air pollution, becuase it's near my area and from this map this area seems to have the best air quality.","i guess it means it's unhealthy for sensitive groups, but a little bit very unhealthy. like, ninth probability it will be very unhealthy. hm, not so sure. yeah, this is the best place.","and for this map, i get my first impression that the air quality is not so good today, so i might reduce my outside exercise. and i will go to the area with lighter color for relief.",,,,"let's see, this is - oh god, i think it's this color range, i can't tell. i feel like this area is this color range. oh i can see blue, maybe moderate when it gets over here. i guess that makes it these three, then. this still looks way nicer than whatever's going on over there, so i think it's overall unhealthy. i'll go to what looks like a good opening for me. yeah, if the wind doesn't change, i'm moderately confident.","it seems like somewhere here (@ legend colors), and i can see more blue here."
f_od_tags,"probability, identify health levels","difficulty, identify health levels, probability",difficulty,"difficulty, probability, identify health levels","qualitative, personal factors, amounts of color (qualitative)",amounts of color (qualitative),"amounts of color (qualitative), identify health levels, difficulty",,"identify health levels, distance, amounts of color (qualitative)","probability, identify health levels",qualitative ,,,,"difficulty, comparison to whole map, time varying aqi","identify health levels, qualitative"
g_sd_text,"i think that's the same with the last question - so this is half and half between unhealthy and very unhealthy. this is the most smooth part - for this, this area doesn't have any noise, so that means that it's the most reliable estimation in this part without any red points.","uh, yeah, i'd change my plans. it's hard to get a sense of what the proportions are, it's sort of a general color field which is hard to rake into integer amounts or easy ratios. this looks pretty good over here, think i'd go there. that looks far and away like the best spot.",,not a lot of great options.,"yeah, i thikn so, that's pretty bleak. but i think red's just such an overbearing color, too. i can't see that there's good, but there probably is in there somewhere, right? pretty ominous.","this is a mix of this one and this one (u.s.g. and u.)? i would agree but not strongly agree, ibecause it's not very - ","this one, it's kind of similar. so, it's kind of a mix between unhealthy for sensitive groups or unhealthy, so probably somewhat, yeah. probably should reduce but i'm not sure. kind of similar to the previous case. in this case, i'd probably go to this one - both i think are similar, but probably here is better -- actually i'm not sure where to go. uh, yeah, not confident.",,"this scenario, the orange color looks somewhere between these two levels. but my area is near, like, the darker color areas. it might be between unhealthy and very unhealthy. so i would agree, I would strongly agree to change my plans. (loc): to get away from air pollution, i think this area looks, has less reddish color, so i guess this is one peak of good air quality, and i guess this one is better than here, so i'll choose to go to this peak. i would choose somewhat confident because the color looks more evenly distributed in this map; it's a little bit hard to distinguish between different areas, and to compare the overall color with the color scale.","actually, i think this figure can help me make decisions because it's a bit, there's, like, general color, (??) yeah it looks like between unhealthy and unhealthy for sensitive groups. but it's unhealthy, so i'm not sure i will change my plan, but this figure looks clear to me. this area looks lighter than other areas.","and for this one, i can feel the condition is similar to the previous one, but somewhat better than the last one, so I will still choose to reduce my outside exercise, but somewhat agree. it appears to me that there is no area that is much better than my current location, so maybe this area is the best place I can find.","this is kinda tough. it kind of blends togetehr to make one shade if you're not looking real close, so it kind of mimics - just the middle, maybe. depends on how much you want to take a risk or gamble, i guess.",,,"feels like someone just smoothed everything. would i change my plans? i don't know any more. wiht this one, i can't tell what the ratio is in this mix, it just seems like an even smattering. here it's really dense, but if you pick any of these gray areas, i don't know. so my only indication is it doesn't feel like i'm in the really unhealthy area. but i'm still between two darkish regions so i feel like i don't want to be here. if i blur my eyes, i'd probably go here.","so it seems more between unhealthy and very unhealthy. this is more difficult, but here is more close to moderate."
g_sd_tags,"probability, qualitative, amounts of color (qualitative)","difficulty, qualitative",,,qualitative,identify health levels,identify health levels,,"identify health levels, qualitative, difficulty","identify health levels, qualitative",qualitative,"difficulty, qualitative",,,"difficulty, qualitative","difficulty, identify health levels"
b_c_text,"so this - is it unhealthy? because i don't think i'm a sensitive groups. so in most cases i don't think it will be dangerous t be outside, but maybe in some cases, i will have, it will be dangerous to be outside. that won't be the main reason to keep me giong outside, but that can be a factor. (loc): in the worst case, the point is stilll in a good condition area.","yes, i would say that i would probably change my plans. where would i go? i would go here. that seems clearer.",,"the true me would wait and see, maybe, but -  and like this is the boundary that it might move to, or the worst case scenario, this is where - ","would you change your plans? definitely. well, i'd want to see what happens, i'd want to look in the sky, i guess.","oh, it's coming in, huh? that is, what is this? umm, somewhat agree. i'd go here.","for this one, i think this one's better. so i'd probably still want to go outside given the area close to my place is just u.s.g., and somehow i dont think this is - half the location, i thnk about a 50% chance to be unhealthy, but i should be okay. i don't know.",,"so, my area -- half of the moderate air quality, and the other half has the potential expansion of the unhealthy air quality. so i wouldn't go outdoors to do exercise today. i would choose to go here because the air quality is the best, and surrounding the good air quality, there's a moderate air quality area, and u.s.g. air quality doesn't seem to have an expansion direction inwards, so i'll choose to go here.",still very close. okay not so disagree because it may be unhealthy. and there's a very unhealthy part near.,"so from this map, i can see that there is a trend that most part of my current location will become worse for air quality, so i might reduce my outside exercise. and i will go to the area with good air quality for relief.",,,,"yeah maybe, it does kind of seem bleak right now. i interpret this as like the last bastion before it gets consumed. if i'm only outside for five minutes, sure, but probably not.  yeah, this one makes it seem so much bleaker for some reason, on an island of safeness.",
b_c_tags,"personal factors, potential",,,"personal factors, best/worst case scenario, potential","personal factors, time varying aqi",time varying aqi,"identify health levels, amounts of color (qualitative), probability",,"potential, identify health levels",distance,time varying aqi,,,,"time varying aqi, shape, amount of time, qualitative",
c_sm_text,"because in most of the estimations, the area is under very unhealthy area, so i may reduce my outside exercise. I think this place is overall the healthiest area in all estimations.","everything looks pretty bad, so i'm gonna say, in the worst case scenario it's hazardous, in the best case it's unhealthy, so yeah i'd definitely strongly agree with that. i would go here because it looks like it's the best in all possible scenarios.",,"yeah, every situation there looks pretty bad.","this map, very unhealthy. definitely change my plans. ehh, i'll change it - what if my friend's in town, he's not here that often? ","i think so. if - oh, this is like the most accurate, that it's very unhealthy? i would probably go here, i'm moderately confident.","similar, i'd probably just use the average case. so these are actually very unhealthy. so even the best case is between unhealthy and very unhealthy, so i'd probably strongly agree on this one. and i want to go -- it feels like the area opens and - so i'd probably go to this corner. actually i'm more confident about this one.",,"for this scenario, i would choose to stay at home, because among the nine figures, four of them contain hazardous areas in my circle, and eight of them contain mostly very unhealthy areas and hazardous areas. and even for the first figure, it is unhealthy, so that means the quality is truly very unhealthy for outdoor exercise, so i would choose strongly agree. (loc): since this figure shows my area is surrounded by hazardous air quality, i would choose to go to this place, because this place is the best air quality area among the nine figures. and maybe in this area, i would get healthier air. and i'm still moderately confident with this choice. becuase even though i choose this place, in these three figures, most of the area is still very unhealthy, so i'm not sure if i choose to go here, will the air quality actually be better?","oh, this is a dangerous one. most of them are so red. looks like nowhere is safe.","and for the nine maps, it appears to me that the air quality is unhealthy even if in the best condition, so i will reduce my outside exercise. and i will go to someplace like this for relief.",,,,"yeah, overall, without quesiton where i'm stasnding is just not ok. it looks like in all the predictions, the top corner seems to be doing a solid job. slightly confident - i don'tk now what's over here, but it doesn't get darker in teh bottom ones, it just stays what's in the neutral prediction.","ok, i will definitely change my plan. "
c_sm_tags,"probability, identify health levels, ","best/worst case scenario, identify health levels",,qualitative,"qualitative, optimization",probability,"probability, identify health levels",,"probability, identify health levels","qualitative, probability",best/worst case scenario,,,,"qualitative, probability",
e_od_text,"i can't see clearly, but the reddest, the red point, is it very unhealthy or hazardous? so i think it's very unhealthy for 1/9 chances, but in most cases it is in my doable range. ","i have no idea where this is. one interesting point about this particular way of dispalying data, and maybe the finer resolution, is it makes it harder to see anything else, like map features. would i chang emy plans? probably not. looks like one of them is bad - two of them are bad? two of them are very bad, one is sorta bad. looks like it's sort of a 50-50? i think it's 2/3 good, 1/3 not great, so i probably wouldn't reduce my outside exercise. i'd go over here, looks like the best to me.",,,"yeah, i'd want to compare it.",this is - somewhat agree bc it doesn't look that bad.,"okay, so --- i'm kind of confused with this one. so, i think it's still between, just between u.s.g. and unhealthy, so.... and the place i want to go is...",,"so, in my area, i think in the little area above here, it's somewhere between the third and the fourth level. and below this small area, the air quality looks better, maybe somewhere around moderate and unhealthy for sensitive groups. so for this scenario, i would choose to do some moderate exercise outside today. so i would reduce my exercise level and choose somewhat agree. i would choose to go somewhere here, because starting from slightly outside my area's circle, the air quality starts to get better, and starting from the point i just chose, there seems to be less reddish colors in the small squares. so i guess i'll go to the nearest possible that i have confidence in the air quality. so for this scenario, i would choose moderately confident. because i'm not sure if i choose to go here, will the risk of unhealthy air quality get much smaller, much lower? here, it doesn't have any reddish colors in these squares.","the most color looks like moderate, but just a little bit very unhealthy, so i guess it's okay. here, we have some green.","for this map, it is possible that i will still continue going outside, and i will go to the place like this. ",it either could be really good or really bad.,,,"jumping from the other one to this one really messes with my eyes. um, no, but if i'm going that direction i'd now probably go this direction. where would i go? this looksl ike a great bastion, unless i'm surrounded and i don't know it yet. it has the blend of oranges and then it fades out, so this feels...",this one seems - moderate to very unhealthy. 
e_od_tags,"probability, identify health levels, difficulty","probability, difficulty, qualitative",,,personal factors ,qualitative,"identify health levels, difficulty",,"identify health levels, comparison to whole map, qualitative","qualitative, amounts of color (qualitative)",,,,,"difficulty, qualitative, shape",identify health levels
f_sd_text,"i think this area's pretty close to this area, so i think it should be fine, and pretty far from the most unhealthy part. i think that should be fine.","this looks very bad. so i'm gonna say that i would strongly, well, yeah, i'd strongly agree, that looks pretty red. i'd go here. the very center looks green, almost totally green, i can't quite tell if there's some blue there i'm not totally seeing. i'm not too sure, the colors are too similar for me.",,,"i just feel like it's trending healthier that way on this map. even though this is better now, it's like, well, it's moving.","this is a mix of these three? hmm, agree.","somehow this one looks more dangerous than the previous one, so still not very sure.",,"so my area here, I think it's a mix of the third, fourth, and fifth level's color. so for this question, i will choose agree. i will choose to go here. because this, from this map, this area's color looks more uniform, like, it looks like a mixture of good and moderate, and i cannot distinguish the mix of teh color, which means the air quality is much better than my area. and i will choose extremely confident. ","yes, it looks like most of them are red. so i strongly agree. the lighter place is good for my plan.","so, this one is similar to the last one for me, but it looks a little bit better, so, still somewhat agree. and i will go to the location that is closest to me with better air quality for relief.",,,,"still, my problem is using this to say - there's too many dots. i'm gonna see this as one blur, i see the rings, but they all seem - i can't tell. my intuition for these ones ifs if i'm here or here it's really bad, here it's sparse but still sparse with bad air quality, it kind of feels like you're ok in a way, but i'm just basing it off how sparse it is for this. if it's sparse but has that red color, then it's worse, sparse with lighter is still safer than sparse with reds, but it still isn't that bad, so...this is a hard one. yeah, i'll definitely go to the light. the benefit of this one is it doesn't feel like it's gonna close in.",this also varies a lot. 
f_sd_tags,"distance, comparison to whole map","qualitative, difficulty",,,"time varying aqi, qualitative",identify health levels,qualitative,,"identify health levels, qualitative, difficulty",probability,qualitative,,,,"difficulty, qualitative, time varying aqi, shape",
g_bp_text,"those are not provided by the government? i thnk that should be fine - this is in the u.s.g., but there might be a way to - from this area to where i am, so there might be a slight chance. i just choose a point that is far from the unhealthy part.","um, yeah. i'm gonna somewhat disagree - these govt ones rae providing better data than these tiny ones. so i'm gonna trust that it's u.s.g. well, i probably wouldn't go anywhere, but if i were to go anywhere, i'd go here, a little bit further to the right than i would before. to play it safe in this hypothetical i'd go east a bit more.",,"this is a bigger sensor, so it's more likely- ","so this local guy's thing says pretty bad right here, this govt one says good here, this local guy's one says worse than the govt one. got it. i think i would somewhat agree. this is good, this is questionable. i think i would trust the federal one more. i think up here makes more sense.","okay, so i would - see, i don't exercise much, so ","this one, it's mostly unhealthy for sensitive groups, so no. actually what's the difference between the circles, the big ones? [...] oh yeah. yeah, actually i don't care about whether it's a govt sensor or not, so yeah. to me, i trust them the same level.",,"so my area doesn't contain any sensors, but my area is close to two very unhealthy - or it's unhealthy, areas. so i'll do moderate exercise outdoors, but i would reduce my exercise. (loc): i would choose to, uh, i would choose to stay at my place. because the whole area is interpolated to be unhealthy for sensitive groups, and if i go somewhere here, there are some third-party sensors saying the AQ is unhealthy, and i wouldn't choose to go below my area because they are unhealthy areas. and i suppose my area's condition is most likely the same with these areas. so i would choose to stay in my area. i'll choose moderately confident bc there's no sensors that have better air quality than my area.","all sensors are not close to my area, so maybe there's a lot of uncertainties. that is u.s.g., so i don't need to change my plan. maybe near the safe place told by the government (sensor).","for this map, the area with unhealthy air quality are quite close to me, so i might reduce my outside exercise. and i will go to someplace with sensors that indicate the air quality is better for me for relief.","(the circle around the sensor doesn't mean anything, right?)",,,"this one is visually easier to look at, my brain doesn't feel like it has to put in effort. i feel like it's fine, it's only unhealthy for sensitive groups, just take two zyrtec. going anywhere else just seems worse.","ok, so it seems like USG, so...so based on the sensors, ...but this one is orange. so i'll say somewhere here, i think bc these three sensors show a lighter color."
g_bp_tags,"qualitative, potential, identify health levels",identify health levels,,,"sensor/interp match, qualitative",,identify health levels,,"distance, sensor/interp match","sensor/interp match, identify health levels",distance,,,,identify health levels,"sensor/interp match, identify health levels"
b_sm_text,"simialrly, in most cases, where i am is u.s.g, which i am not, so only the worst case is unhealthy weather, which is fine for me. i think that will be fine going outside. in the worst case, this point is still moderate.","yeah, i'd change my plans. i'm really skeptical of this one little bastion of clean air, so yeah, i'll say i'd probably agree. i'd strongly agree, i think. where would i go for relief from air pollution? i guess i'd go here, because it's the best place on the map, but i'm not at all confident about that.",,,just don't know about this one.,"it depends where i'm at. even if it gets the worst case, it's not - this is very unhealthy. ","so, uh..yeah, still use this one (center). so if it's unhealthy i'll probably agree.",,"i'll still choose agree, like, i believe that my area contains mostly the third level of air quality. so i would reduce my exercise, but if i need to exercise, i'll still do so moderately. and i will choose to go here. because from this map, this area looks like the peak of air quality.","okay, this is close to the best place, but i think i don't need to change -. okay, just move a bit. ","so for the nine maps, i can see that in most of the cases, it seems the air qualitiy is okay for me. so i might reduce my outside exercise but not highly possible. and i will go to the area with the best air quality i can find.",,,,"i truly don't understand what USG means to me as a person, i might just think this system is kind of ar ecommendation and i cank ind of roll dice with it. bc only if you experience tehse three does it make sense, otherwise i'd keep rolling dice. orange for me here, just bc i experienced it, is like, wow, that sucks. i'm on the island again. i'm not leaving this ring. yeah, best case - this image looks so daunting to me. i mean i guess consistently throughout, i think it's here, throughout all 9, they're saying yeah that's soildly ok, so i feel really confident about that one, bc all 9 are saying that's overall ok.","this seems like usg. and, it's clear that here is the most clear."
b_sm_tags,"probability, best/worst case scenario","express skepticism, qualitative",,,difficulty,"best/worst case scenario, identify health levels",probability,,"identify health levels, qualitative",qualitative,probability,,,,"probability, qualitative",identify health levels
c_od_text,"i think it's a disaster here - there, the chance is not that bad. so maybe i wno't go outside if it's not an emergency. this part is not that red.",this one's very bad. i'd definitely reduce my exercise. this looks like the best place so i'd go over here.,,,yes. ,this is definitely strongly agree.,"so this one's probably, yeah, definitely. to me, the whole area's just unhealthy or very unhealthy, so just avoid outside exercise. i just don't want to go anywhere.",,"so this scenario looks like my area is between very unhealthy and hazardous. to stay away from air pollution, maybe i'll go, maybe i'll just stay at my place, because this area is a little far from my area, and although this looks like the reddest color on the map, the overall color still looks like it's between the third and the fourth level, so if i go to this area, i don't think the air quality will get better. so i'm extremely confident.","yes, strongly agree, because so red. i guess here is the better place because it's at least not red lines, still have some yellow points.","and for this map i will definitely not go out, because the map shows that the air quality is extremely bad. and i will go to the place with the best air quality i can find in this map, somewhere here.",,,,"yeah, 100%, that's not worth it. no, there's not really any relief, i'd just not go outside. if i had to pick a place i'd probably pick here over here this time, bc it feels it has more lighter out here. there's this one dark pocket, and this is lighter, and here it gets darker. so overall it seems safer.","it seems like unhealthy to hazardous, so...strongly agree. there's not much choice "
c_od_tags,"probability, qualitative",qualitative,,,,,identify health levels,,"identify health levels, comparison to whole map",qualitative,qualitative ,,,,qualitative ,identify health levels
e_sd_text,"i thikn this area is in teh range from u.s.g. to very unhealthy, so i'm not sure - the range is too big. but when i go outside i will be affected, so decide whether i'll go or not. yeah, there, there's not that much noise here.","it's hard to tell -- this fine of a resolution, i really - it just looks like dots. i mean, erally what i'm looking at now is how it looks relative to things around it, and it looks very bad relative to this area on the right here, but it's really hard for me to quantify just how bad it is. but i see a lot of specks of red so i'd probably reduce my outside exercise. ",,,"this would be a lot harder for someone who didn't experience bad air quality.  that looks a little scary, but not as scary as the other ones.",,"yeah, i think, this one's relatively - i think most area is just unhealthy for sensitive group, and then probably just go here.",,"this area looks like it's between, it's between the third and fourth level. so i'll choose agree, and i'll choose to go here, because it's moderate, it's of moderate air quality and it doesn't contain any smaller, small dots of reddish-orange colors. so this is the nearest place i can go to get better air.","this looks like there's - it is combined with u.s.g., u. and v.u., and most of them are unhealthy, so very unhealthy and u.s.g. like half and half, so...maybe somewhat agree. so, this area is clear.","the air quality is fine for me, so i might slightly reduce my outside exercise. and i will go to the place with lighter color which means air quality is better.",,,,"yeah, don't think i'm changing anything, it just doens't seem that bad. but here looks absolutely perfect.","this seems like a mix of everything, but this area seems clear."
e_sd_tags,"difficulty, identify health levels, personal factors","difficulty, comparison to whole map, qualitative",,,"personal factors, qualitative",,identify health levels,,"identify health levels, qualitative","identify health levels, probability",qualitative,,,,qualitative,qualitative
f_bp_text,"in this picture i'm pretty close to the govt sensor, so i think that should be fine, bc it's a healthy situation for me. in this place, it's a moderate place to go so that should be healthy for me.","no, i don't think so, i've decided i'm okay with the u.s.g. ",,,"i'm curious about this dip. what makes this dip - is it this strongness? but why wouldn't it be that? where would i go for relief, just based on this little guy's home detector? this one, i can't really trust these. and this is a little worse, so i'd be like, okay, this area's worse, this is better, this guy says it's really good. ","okay, unhealthy - agree. oh wait, this has the - then i think i'd go here.","mostly just unhealthy for sensitive groups, so - i would disagree to reducing my outside activities.",,"with this map, this area is the third level of air quality, so i'll choose agree. so i'll choose to go here for, to get relief from air pollution, because there's a sensor in the surrounding area sayiing the same thing -- it's moderate air quality, and it looks like, both from the color changing from here to here and the colors from this sensor to this sensor to this sensor, looks like the air quality is truly getting better. if i go from this area to this area.","this place is good enough for me. it's not from the govt, but that means it's better, it's moderate, and it's near the government sensor says it's just u.s.g., so i guess there is good. ","for this one, it appears to me that my location is actually has not so bad air qualtiy, and i am close to the area with good air quality, and i am close to the area with good AQ, so i might not reduce my outside exercise, but i'm not sure. so i will go to the place with moderate air quality and the sensor that indicates the air quality is moderate for relief.",,,,"yeah, still doesn't seem that bad to me. i mean, i guess i'd go here bc this one tiny sensor says it's not that bad, anywhere else seems kind of foolish,. i have nothing to lose by going over there.",i believe the sensor.
f_bp_tags,distance,identify health levels,,,"sensor/interp match, express skepticism, qualitative",identify health levels,identify health levels,,"identify health levels, sensor/interp match","sensor/interp match, identify health levels","qualitative, distance, identify health levels",,,,qualitative,
g_c_text,"in this picture, i might be under unhealthy situation, but the unhealthiest, it does not matter that much for me, so i'm okay to go outside.","so in the worst case scenario, everything is unhealthy except for these little areas here? i'm gonna say i would somewhat agree. i'm going to agree on this, potentially bad. ",,,this one's wild -- what's this line? it's flanking me. ,"so it's getting to that area, so the inside part is not gonna be red. i would agree that i wouldn't want to go, because it's getting there.","so this means the unhealthy region can cover the map except those two—? so, this one actually i'd probably somewhat agree. and, definitely go to this place close to where i am right now.",,"so this one looks like, the two unhealthy areas below my area are both expanding. and from the direction, i think they are going to expand to my area. so i will choose strongly agree. since there are two areas expanding, and from the contours, if they expand to the contour line, then all of my area's circle and its surrounding area will be covered in unhealthy areas, so i would choose to stay at my home.","it looks like it will change from u.s.g. to unhealthy,  -- not change, just with the probabilities -- so, and i can stand for u.s.g., but not so good for unhealthy, so maybe somewhat agree. inside the unhealthy for sensitive groups area.","so for this map, it shows that there is possibility that the air quality in my location will become worse, so it is highly possible i will reduce my outside exercise. and i will go to the place that is the closest to me and has lower possibility to become worse, for relief.",,,,"uh, huh. okay, that's a trip. so this is gonna exetend outwards and this whole area could, worst case, be orange. ehh, yeah, i'll still take the odds. yeah, i'll just go inside here.",this area seems bigger.
g_c_tags,"potential, identify health levels","best/worst case scenario, identify health levels",,,shape,"time varying aqi, qualitative","potential, identify health levels",,"time varying aqi, identify health levels","potential, identify health levels","potential, qualitative",,,,"best/worst case scenario, potential, identify health levels",size/area
b_od_text,"in most of the cases, i seem to be under - in the worst case i'm under unhealthy weather, so it's okay for me to go outside.","definitely, that looks bad. this is clearly the best.",,,such a small scale.,"um, yes. i should be - if it says unhealthy, then i sholdn't go out, but maybe i have to do stuff. ",this one's probably just either unhealthy or very unhealthy so i probably agree. ,,"so this area is, on the left of this area, the air quality becomes moderate, but on the right of my area the air qualityi s still unhealthy. so i'll still choose agree. and i would go here to get relief.","it's good for me, like, most of them is unhealthy, and it is connected to an area.","for this map, i can find that, um, the area that is close to me has really bad air quality, so i will reduce my outside exercise, and i will go to the blue area for relief.",,,,"nah, wouldn't change anything, this looks great.","seems somewhere between moderate to unhealthy, so...and this area has blue colors."
b_od_tags,best/worst case scenario,qualitative,,,difficulty,"identify health levels, personal factors",identify health levels,,"qualitative, identify health levels","qualitative, identify health levels","distance, qualitative",,,,,identify health levels
c_sd_text,"oh, that's hazardous, right? it's pretty serious in my area, so i might not go outside. if i must go, that is the place that might damage my health the least.","yeah, i'd definitely not do it. anyone can see how much red that is. and this seems close to this? not really sure if one is better than the other. this is bigger, so i guess i'll go here, i'm slightly confident about that.",,,"so bleak, i'm going over there.","okay, strongly agree.","so this one, yeah, not a good idea at all. and i'd probably go here, hopefully the area outside this region is --",,"this area is between very unhealthy and hazardous. and on the upper right of my area, the air quality looks like, tends to be hazardous in color. so i would strongly agree to change my plans. to get relief, i would still stay at my place, because the whole area looks not very good air quality. so i'd rather stay at home. ","oh, so it's very unhealthy, so i should change - strongly agree i should change my plan. if i have to go outside, then this place is not so bad.","and this map also appears to me that air quality is extremely bad, so i will not go out. and this is the only place i can find for relief.",,,,"i'm never confident, but if i see smoethingl ike this where eveyrthing is red, i wouldn't go outside today. this one makes sense, there's always the allure of here, the way it's shaded it doesn't feel like it's closed over there, but here it feels like there's a pocket.",
c_sd_tags,qualitative,"qualitative, distance, size/area",,,qualitative,,qualitative,,"identify health levels, qualitative","qualitative, identify health levels",qualitative,,,,"comparison to whole map, qualitative, shape",
e_bp_text,"i think since this place is closer to the unhealthy sensor, but in this estimation is in the u.s.g. area, that might be a factor to me. here is close to the good weather sensor.","uh, possibly. these ones look very close to me, they're bad, these ones are far away that are saying it 's u.s.g., but i'm skeptical about their models, because they don't seem to be taking into account much more than distance to nearest center. i'd go right over there nestled in between those different sampling points.",,"would the me in the scenario be thinking about where the sensors are? because the me who will sometimes look at an air quality thing will be like, there's a sensor here and it's pretty bad, but i'm in unkonwn territory here, so i'm a little more inclined to think this would be accurate. so i would somewhat disagree. where would I go? I'd tuck in close to the sensor.","oh, a government guy. just go that way.",,"so, yeah, this one i probably disagree to reduce my - and i'd probably go here.",,"this area - so this area looks, it's unhealthy for sensitive groups, and the sensors' colors are all the same as this color, so i believe the prediction of my area's quality is quite accurate. so i choose agree. and if i were to go to a place, i would choose to go, like, it's near the authorities' air sensor, which says it's moderate, and it's, um, comparatively close to mine.","so, actually, i think this area is more - is closer to the unhealthy sensor. so i believe it's unhealthy for sensitive groups and i don't need to change my plans. if i need to i will go -- the center of the three moderate sensors.","so for this map, it appears to me that the air qualitiy is okay, so i might not reduce my outside exercise. and i will go to the place with as many sensors as possible that show the air quality is okay for relief.",,,,"uhh, no, not at all. i wouldn't change anything. relief over here - there's a lot of sensors, government and corporate ones, so that's ok, unless they're lying to me again, but sure.",these all three sensors show moderate.
e_bp_tags,"distance, identify health levels","distance, express skepticism, sensor/interp match",,"sensor/interp match, express skepticism",qualitative ,,,,"identify health levels, sensor/interp match, distance","identify health levels, distance",qualitative,,,,"express skepticism, qualitative",identify health levels
f_c_text,"in this case, there's a possibility to be under unhealthy weather, so that will be , maybe affect whether i want to go outside for exercise.","looks like i'm most likely in the clear, in the worst possible situation, why not. ",,"this might go to here, this might go to here, okay. yeah, i think that could get bad. ",,,"there are too many arrows - it takes some time to get it. so the worst case could be, this is unhealthy, normal case is except for the circle right here. so, yeah, probably where i am is unhealthy, so i probably somewhat agree to reduce my activities. and definitely want to go here. somehow, after spending more time investigating the visualization, i probably have more confidence.",,"for this scenario, the unhealthy area is expanding to take over the third level air quality, which is my area's air quality, and i can see that my area is also expanding. which means the bad air starts to come from the right, or the east side, of my area, and it's expanding. so i would choose strongly agree to change my plans. if i were to go for relief, i would choose to go here, because it's predicted that the third level air quality will expand to this contour line, whereas this area won't be affected in the future. so i would choose to go here. ","it looks like it could be unhealthy, but partly unhealthy. the best place in the moderate -- it is, it will be absolutely moderate so this is the safe place.","from this map, i can see that even if the air quality of my current location is okay, there is a trend that it will become worse, so i might slightly reduce my outside exercise. and i will go to the place here for relief. ",,,,"ok, let's interpret this one. this will become darker... this is still fine. so i'm in an area that's gonna become - yeah maybe. it's a lot of change that can happen. i'm caught between usg and unhealthy. maybe i shouldn't stay - this one feels confident to say it's the best location.","it's either unhealthy or usg, so... "
f_c_tags,"potential, identify health levels","best/worst case scenario, qualitative",,"potential, qualitative",,,"difficulty, identify health levels, best/worst case scenario, potential",,"time varying aqi, identify health levels","identify health levels, potential","time varying aqi, qualitative",,,,"identify health levels, potential",identify health levels
g_sm_text,"there are high chances i'm going to be under unhealthy weather, so i might not go for exercise, because exercise is for health, i don't want to make it worse.",,,unhealthy? ,,"let's be real, i probably won't exercise whether it's good or not.","i'll probably still use this one for the average case, and then to me it's, i'm still okay to go outside. and then if i want to go somewhere, i'd probably, in this case i'd probably use this one. yeah, i probably will use the average case for going outside or not, and to pick a safe place i'd probably pick a more extreme case, the worst scenario for choosing a place. ",,"for this figure, half of the figures are unhealthy, most of the air quality is unhealthy, and half of them it is unhealthy for sensitive groups. so overall, it's somewhere between these two levels, so i'll choose strongly agree to change my plans. i would choose to go here if i don't want the air to get worse, because from these nine plots, this area is the least likely to be infected by the unhealthy air quality.","this is like half and half, unhealthy and u.s.g., so... i think this is, this point is all u.s.g in all nine figures.","from the nine maps, i can see that there is half of the possibility that air quality is worse than i can accept. so i will somewhat reduce my outside exercise, and i will go to the place like, actually, i acn't find any area that is good for me, but i would go somewhere like this for relief.","the only thing i'm wondering about is, uh, how things could change in time. i'd think, like, maybe factoring in time, that the blobs might move around. but i guess that's part of what the multiple models would determine.",,,"yeah, i feel like there's a decent chance where the current circle is that it's gonna be pretty bad.","ok, so it's either usg or unhealthy. this one is the most clean air even for the worst case."
g_sm_tags,"potential, identify health levels, optimization",,,identify health levels,,,"optimization, probability, best/worst case scenario",,"probability, identify health levels, time varying aqi","probability, identify health levels","probability, qualitative",time varying aqi,,,potential,"best/worst case scenario, identify health levels"
b_sd_text,"since most of the cases its' under unhealthy weather, so i might not go outside. but there's a chance it's unhealthy for sensitive groups, so it's okay to go outside.","it's partly unhealthy for sensitive, and partially unhealthy, so i'd probably reduce.",,worst case scenario seems unhealthy. ehh...,,,"to me, it's most likely unhealthy or very unhealthy. for this one, given this kind of visualization, to me i'm less confident. ",,"so this color is between the third and the fourth level, and on one side of my area, air quality becomes better, so i'll choose agree. ill choose here, because from this plot, this is the only place that contains the color of good air quality and most of the area contains moderate color.","i guess this is the same situation with the previous one, so it's like half unhealthy and half u.s.g.","and for this one, i can see that most of the area already has air that's not so good, so i will somewhat reduce my outside exercise. and i will go to the only area with good air quality if i can.",,,,,
b_sd_tags,"probability, identify health levels","probability, identify health levels",,"best/worst case scenario, identify health levels",,,"difficulty, identify health levels",,"identify health levels, amounts of color (qualitative)","probability, identify health levels",qualitative,,,,,
c_bp_text,"where i am, there are several sensors that show it's hazardous, which is the worst weather situation, soi i definitely will not go outside. this sensor seems to be the only one in the group, and it's not provided by govt so might not be that reliable, and surrounded by very unhealthy weather. so even if it's moderate i don't think it's right.","definitely, yeah. there seems to be broad consensus that it is at least very unhealthy. (loc): this is less obvious. i'd probably go over here, since there are two sampling points that are not bad, whereas if there's one alone i'm not gonna believe this one in particular, but this one could be malfunctioning as well. so i'm really not at all confident about that.",,"going to the sensor. well - yeah, going to the sensor.",,,"here, a lot of sensors indicate unhealthy or hazardous, so i probably strongly agree. and then i maybe go - yeah, maybe go here. ",,"i'll definitely change my plans, because the, my area is surrounded by very unhealthy color, and also all of the sensors are very unhealthy and hazardous, so i'd choose strongly agree. i'll still choose to stay at my place, because this area, it looks like it's of better air quality, but its color is unhealthy, and there's only one third-partys ensor that says it's moderate or good, which i don't think can be trusted. so i stlil choose to stay at my place.","yes, no sensor says it's safe. this is an isolated sensor saying it is moderate, but this moderate sensor has some unhealthy around it, so i guess this is better than that one. i'm not so confident.","and from this map, i will definitely not go out because according to some of the sensors near my location, i can see that the AQ already becomes hazardous. and i will go to the place with a sensor that indicates air quality is good for relief.",,,,"yeah, this one's not happening. it looks bad for me. it's a lot of sensors telling me it's not good. I think i'd actually go here just bc it's the only sensor in this area saying it's ok, whereas here i have more than one sensor saying it's slightly less worse. yeah there are too many govt sensors around here saying its' not the area to go to.","okay, that is definitely unhealthy, and this sensor shows - but this is somewhat difficult bc all the other sensors show very unhealthy, but this one is not a good sensor. i'm not sure, but then there's not much - so these three other sensors show unhealthy, os maybe the upper, northwest area is clear."
c_bp_tags,"express skepticism, identify health levels, sensor/interp match","sensor/interp match, identify health levels, qualitative",,,,,"sensor/interp match, identify health levels",,"shape, sensor/interp match","express skepticism, sensor/interp match, identify health levels","identify health levels, sensor/interp match",,,,"qualitative, sensor/interp match","identify health levels, sensor/interp match"
e_c_text,"there's a chance i'm under an unhealthy situation, so i may not go outside. it seems that this is the closest area for me that is in the good situation. i know there's another one here, but that's too far for me.","ahh, i'm gonna say neither agree nor disagree, because again i'm pretty close to the border in the worst case scenario, so it's probably okay for me as a nonsensitive individual. if i were to escape the pollution, i'd go there; quite confident about that.",,"could get pretty bad. eh, could be kinda bad. ",this could go out to here - ,,"here, the orange can go to here, and the green can go to here. so, probably somewhat agree. i'll probably go here with the hope that the outside air is good.",,"for this scenario, i will, i'll strongly agree to change my plans, because the unhealthy air quality is expanding and my unhealthy for sensitive groups area is also expanding. and it looks like the unhealthy area is, it looks like this is a source of the bad air, and my area is likely to get affected by this sort of expansion. so i'll choose strongly agree. (loc): i'll choose to go here, because this area expands to the area's border line, which i guess means that this area surrounded by the contour line will not be affected for a while, it will contain moderate to good air quality. and i'm extremely confident.","yeah, still there's some possibility it will be unhealthy, so - in this circle.","and for this one, although the current map shows that i am in the area with air quality that is ok, there is a possibility that it will become worse. so i will slightly reduce my outside exercise, and i will go to the area that is the closest to me with better air quality for relief.",,,,"yeah, maybe. just hte idea that it may be unhealthy -= i'm already starting off at unhealthy for me, and it's gonna be unhealthy, or could be - it's putting a time component in my head. ",i'll go to the center of this boundary.
e_c_tags,"potential, identify health levels, distance","distance, qualitative",,qualitative,potential,,potential,,"time varying aqi, potential, identify health levels","potential, identify health levels","potential, qualitative",,,,"time varying aqi, identify health levels",shape
f_sm_text,"most cases - in some cases i will be under an unhealthy situation. so it's okay to go outside, but there's a chance i'll be under very unhealthy. yeah, even in teh worst case i should be fine.","oh, got almost the whole spectrum here. this is confusing, i don't know what to make of this. neither agree or diagree, there's too much variation. but if there's a lot of variation, i'd probably err on the side of reducing my exercise.",,,,,"this one (middle), probably still go outside; this one (8th), here.",,"i will choose agree for changing plans of exercise. because six of the figures, in six of the figures, most of the area is above the third level of air quality, but there are three figures showing that the air quality is moderate or good. so i guess it's somewhere between these three levels. i would choose this area because it's the best air quality area in that figure. i'm moderately confident - this choice, i guess, so the last figure and the first one, or the first three, there is a huge difference between them. so i guess the most likely is the third level air quality, but i'm not very sure.","this is a large range for a lot of possibilities. but i think it's okay - at least six pictures say it's okay for me, so. ","and for these nine maps, the possibility of—it might be possible that i will slightly reduce my outside exercise becuase it is a little confusing that, um, how well the air quality is in my area. so for safety, i will just slightly reduce the exercise. and i would choose the area like this becuase it has good air quality even in the worst condition.",,,,"eh, would i change anything? probably not. these two worst case ones are saying it goes ot unhealthy, this is saying it's moderate - yeah i could reduce, but somehow i feel like overall it may be okay, maybe not. i'd probably go toward the center dot. just how much do you want to gamble on it?",
f_sm_tags,"probability, identify health levels, best/worst case scenario","difficulty, personal factors",,,,,probability,,"probability, identify health levels",probability,"potential, qualitative",,,,"best/worst case scenario, identify health levels",
g_od_text,"it seems like there's 50% chances i will be under unhealthy situation, so it can affect my schedule. this seems pretty reliable to say it's only u.s.g."," i probably would. it still looks like a lot of - it looks like a mix between healthy and unhealthy - i'm more uncertain about this one, it's more of a 50-50 split.",,,,"see, this is if i exercised, though. if it was work, then that would probably change my answers. or meeting friends. ","it's either unhealthy or very unhealthy, so i would agree. but i'm not confident.",,"i will choose strongly agree, because this area looks like it's surrounded by these three colors. and the areas surrounding my area doesn't seem to get much better, so i'll definitely change my plans. i would choose to stay at my place, because from this map, the best air quality is here, but it's still of unhealthy for sensitive groups color, so i don't think it will be better if i go travel this far to here.","okay, this is half and half between unhealthy and very unhealthy, so i should change my plan. and i can change this area is absolutely unhealthy but better than v.u.","and from this map, i can feel that the air quality of all the area is not so good, so i will slightly reduce my outside exercise, and i will go to the closest location with better air quality, maybe somewhere like this for relief.",,,,"i don't know, flat out. it's a blur for me of these three, but i can't tell. i mean i know where i'd move towards, but i don't know what i would do if just presented this. ","wow, so it's difficult to - yeah."
g_od_tags,"probability, identify health levels","probability, identify health levels",,,,personal factors,identify health levels,,"shape, identify health levels, comparison to whole map","probability, identify health levels",qualitative,,,,difficulty,difficulty
final thoughts?,"i think the graph above it(legend), when they mix together, it's not easy to tell. ",,"i think it's a lot harder when it's a bunch of different dots, sort of diffused - from what you explained it seems more accurate that way, but i grew up reading the one in the newspaper, block of color - i knew that when the sonoma fires, it was very easy to decipher, that area's red, this area's - the more ambiguity, i think the dots for me, signal more ambiguity. or more diffusion, even. it seems like it's bad and good air quality, which is realistic and accurate but also hard for my brain to deal with. and i think the arrows were slightly confusing. ","i felt like the very - the ones with smoothing, i dont' know, were they like greater than a 9x9 grid? i usually interpreted that one as being worse, like definitely with an AQ thing you think of it as, you think of it a little bit less as likelihoods and like this is the air quality in this spot, like you still want to interpret it as not a range of possibilities, but as the average of that - which maybe that's good for discouraging people from - there's not a lot to be gained from me going outside when i probably shouldn't - the arrow ones in some cases were a little, i think the arrows did a good job of me being confident in a region being fine when there was, you coudl see some boundary that was drawn to and it ended, that was a very definite ending to a boundary - ",,,"i thikn to me, i'm a little biased, because i've done a lot of research in visualization. so if you want to make a decision based on vis, probably you won't select, you won't see me select extremely confident, i tend to be suspicious, it's kind of habit to me right now, so i'm a little biased. and another thing that i feel, if the visualization has more things that i need to interpret, or i need to spend more time on analyzing the visualization, i tend to have more confidence. so the boundaries with the arrows, i somehow feel more confident about those visualizations. ","for the 3x3 picture, and at first i was curious about what that means, but now i finally i got the sense that i'm in the same place, but for this place, it will go from maybe very healthy to very bad. and then i got that sense and then - because before, before the final several questions, i thoguht i would just kind of randomly choose something, actually. but now, several questions after, i get such kind of sense and then choose something based on what i thought, same place but whether the air quality might be from very healthy to bad. and if i can go somewhere for relief from air pollution based on the 3x3 pictures, i will always choose the very healthy one to fit my point to the one in the v healthy picture. if i point my the place i want to be for relief, i think i can also fit my point to the very bad picture one, because they are actually the same, and from the very bad air picture i can have more accuracy to pick out the best air from the very unhealthy air picture rather than directly fit my point in the very healthy picture. that's what i figured out after several questions.",,"i think that the arrow design and the comparison between the dots and the 3x3 is very interesting, and if it will be applied in other places there the user study is necessary bc people may have different ideas about them and make different decisions. sometimes i just know, like, they may mean the same things, but when i see pictures, i may, like, i think a little bit different. ",,"i think it was definitely helpful to have the different models, but i don't know. it's like, it's kind of strange because some of them differed so much and i don't know which one to trust. i guess in real life oyu'd probably have some idea of which one of those boxes might be more reliable depending on who made it, but just going with what i had, i definitely, it would be useful definitely to have the different views and also the arrows and stuff and the lines. the one with the multiple pixels representing different cases in each, like, - that one was a little odd bc i had to kind of, like, guess, it seemed like a lot of the times there was always some red dots or some bad dots there. and i wondered what's the chacne that that red dot is actually gonna mean something, but i think if you were using this in a real scenario, you'd probably get used to teh outcome depending on what the model tells you. you'd probably get used to, like, if it looks like red right there, in real life you'd probably adapt to it.","i feel that it's easier than i thought to use the nine views because i can compare, and i can see the worst case. even if it's the worst case, I won't go there, it made me confident. also, I noticed there are different views - some are, like, the circles, the ones that are more the raw data - it's informative but still you want to see at once to see where you want to go. i like the ones, the one more like sand - it's more like random dots - and the little squares, the matrix ones - those are relatively the same to me, those are similar. but i prefer the sand one, the random one, because it's more smoothly spread. except for one case, there is an area that's all yellow but others, there are lines and dots - i don't know how to describe that - for that one i notice it's different and it's easier to use the matrix one. maybe for some cases, this one is better and for some cases, that one is better.","i do have some confusion about the survey process - i'm confused about what's the differences, i feel there are some repetitions, but i cannot tell what the differences are. (me talking about it) ",,"one thing i worry about is the question is always eitehr USG or unhealthy, there was no good. so i think my answers might be skewed toward all agree. showing the sensors is somewhat good bc i can build up my own interpolations. "